<?xml version="1.0" encoding="utf-8"?>
<!-- Generator: Adobe Illustrator 15.0.0, SVG Export Plug-In . SVG Version: 6.00 Build 0)  -->
<!DOCTYPE svg PUBLIC "-//W3C//DTD SVG 1.1//EN" "http://www.w3.org/Graphics/SVG/1.1/DTD/svg11.dtd">
<svg version="1.1" id="Layer_1" xmlns="http://www.w3.org/2000/svg" xmlns:xlink="http://www.w3.org/1999/xlink" x="0px" y="0px"
	 width="48px" height="48px" viewBox="146.077 24.72 48 48" enable-background="new 146.077 24.72 48 48" xml:space="preserve">
<g>
	<path fill="#FFFFFF" d="M159.912,59.77c2.532,2.329,5.865,3.8,9.541,3.951v-1.843c-3.167-0.148-6.041-1.414-8.236-3.411
		L159.912,59.77z"/>
	<path fill="#FFFFFF" d="M166.238,42.271l-3.994,0.022l-0.942-0.011l0.001,0.361c0.675-0.022,0.941,0.175,0.941,0.539v11.736
		c0,0.431-0.351,0.573-0.947,0.583v0.405c1.303-0.016,2.605-0.01,3.909-0.022v-0.372c-0.73-0.044-1.092-0.21-1.092-0.584v-4.938
		c0.708,0.722,1.726,1.045,2.705,0.94c1.844-0.196,3.583-2.143,3.466-4.594C170.176,44.076,168.613,42.258,166.238,42.271z
		 M168.445,48.136c0,1.175-0.937,1.805-2.174,1.805c-1.247,0-2.196-0.969-2.196-1.981l0.001-2.834c0-1.196,1.133-1.835,2.246-1.836
		c1.072,0,2.123,0.587,2.123,1.836V48.136z"/>
	<path fill="#FFFFFF" d="M170.703,61.878v1.843c3.675-0.151,7.008-1.621,9.538-3.951l-1.301-1.303
		C176.743,60.465,173.87,61.73,170.703,61.878z"/>
	<path fill="#FFFFFF" d="M180.241,37.671c-2.531-2.33-5.863-3.8-9.538-3.951v1.843c3.167,0.148,6.04,1.413,8.237,3.411
		L180.241,37.671z"/>
	<path fill="#FFFFFF" d="M156.92,48.095c0.147-3.166,1.414-6.041,3.411-8.236l-1.302-1.302c-2.329,2.531-3.801,5.865-3.952,9.539
		H156.92L156.92,48.095z"/>
	<path fill="#FFFFFF" d="M177,50.932c1.846-0.196,3.585-2.143,3.466-4.594c-0.108-2.261-1.672-4.079-4.046-4.066l-3.994,0.022
		l-0.942-0.011l0.001,0.361c0.675-0.022,0.941,0.175,0.941,0.539v11.736c0,0.431-0.353,0.573-0.948,0.583v0.405
		c1.304-0.016,2.606-0.01,3.911-0.022v-0.372c-0.73-0.044-1.093-0.21-1.093-0.584v-4.938C175.003,50.713,176.021,51.037,177,50.932z
		 M174.256,47.96l0.001-2.834c0-1.196,1.135-1.835,2.245-1.836c1.072,0,2.124,0.587,2.124,1.836v3.01
		c0,1.175-0.938,1.805-2.175,1.805C175.206,49.941,174.256,48.973,174.256,47.96z"/>
	<path fill="#FFFFFF" d="M183.234,48.095h1.843c-0.149-3.673-1.62-7.007-3.95-9.539l-1.303,1.302
		C181.822,42.054,183.086,44.929,183.234,48.095z"/>
	<path fill="#FFFFFF" d="M169.452,35.563V33.72c-3.675,0.151-7.009,1.622-9.541,3.952l1.304,1.303
		C163.412,36.976,166.286,35.711,169.452,35.563z"/>
	<path fill="#FFFFFF" d="M179.824,57.582l1.303,1.303c2.33-2.532,3.801-5.865,3.95-9.539h-1.843
		C183.086,52.511,181.822,55.386,179.824,57.582z"/>
	<path fill="#FFFFFF" d="M156.92,49.346h-1.843c0.151,3.674,1.621,7.007,3.952,9.539l1.302-1.303
		C158.333,55.386,157.067,52.511,156.92,49.346z"/>
</g>
</svg>
